module hypixel-bot

go 1.18

require (
	github.com/SevereCloud/vksdk/v2 v2.13.0
	github.com/golang/freetype v0.0.0-20170609003504-e2365dfdc4a0
	github.com/valyala/fasthttp v1.31.0
	modernc.org/sqlite v1.14.3
)

require (
	github.com/andybalholm/brotli v1.0.3 // indirect
	github.com/davecgh/go-spew v1.1.1 // indirect
	github.com/google/uuid v1.3.0 // indirect
	github.com/kballard/go-shellquote v0.0.0-20180428030007-95032a82bc51 // indirect
	github.com/klauspost/compress v1.14.1 // indirect
	github.com/mattn/go-isatty v0.0.12 // indirect
	github.com/remyoudompheng/bigfft v0.0.0-20200410134404-eec4a21b6bb0 // indirect
	github.com/valyala/bytebufferpool v1.0.0 // indirect
	github.com/vmihailenco/msgpack/v5 v5.3.5 // indirect
	github.com/vmihailenco/tagparser/v2 v2.0.0 // indirect
	golang.org/x/image v0.0.0-20210628002857-a66eb6448b8d // indirect
	golang.org/x/mod v0.3.0 // indirect
	golang.org/x/sys v0.0.0-20211007075335-d3039528d8ac // indirect
	golang.org/x/text v0.3.7 // indirect
	golang.org/x/tools v0.0.0-20201124115921-2c860bdd6e78 // indirect
	golang.org/x/xerrors v0.0.0-20200804184101-5ec99f83aff1 // indirect
	lukechampine.com/uint128 v1.1.1 // indirect
	modernc.org/cc/v3 v3.35.18 // indirect
	modernc.org/ccgo/v3 v3.12.95 // indirect
	modernc.org/libc v1.11.104 // indirect
	modernc.org/mathutil v1.4.1 // indirect
	modernc.org/memory v1.0.5 // indirect
	modernc.org/opt v0.1.1 // indirect
	modernc.org/strutil v1.1.1 // indirect
	modernc.org/token v1.0.0 // indirect
)
